…
Palabras que  contienen "ch"


```r
dic_raw_1[grep("(ch)",dic_raw_1$word),]
```

```
## # A tibble: 109 x 2
##    word           N
##    <chr>      <int>
##  1 agaché         1
##  2 ancho          1
##  3 anchoas        1
##  4 anoche         4
##  5 aprovecha      1
##  6 baches         1
##  7 bachiller      1
##  8 borracho      13
##  9 borrachos      4
## 10 cachichien     1
## # ... with 99 more rows
```
…
