Exploración y curado de chistes
…
dic_raw_1[grep("zq",dic_raw_1$word),]

## # A tibble: 4 × 2
##   word          N
##   <chr>     <int>
## 1 izquierda    20
## 2 izquierdo     7
## 3 vazquezy      1
## 4 vezque        1

Palabras que contienen “ch”

dic_raw_1[grep("(ch)",dic_raw_1$word),]

## # A tibble: 832 × 2
##    word                  N
##    <chr>             <int>
##  1 2ºchiste              1
##  2 abolladuras.dicho     1
##  3 abrochados            1
##  4 acha                  1
##  5 achedo                1
##  6 achica                1
##  7 achííííííííííííís     1
##  8 achillar              1
##  9 achina                1
## 10 achiqué               1
## # … with 822 more rows
…
