…
Palabras que  contienen "ch"


```r
dic_raw_1[grep("(ch)",dic_raw_1$word),]
```

```
## # A tibble: 832 × 2
##    word                  N
##    <chr>             <int>
##  1 2ºchiste              1
##  2 abolladuras.dicho     1
##  3 abrochados            1
##  4 acha                  1
##  5 achedo                1
##  6 achica                1
##  7 achííííííííííííís     1
##  8 achillar              1
##  9 achina                1
## 10 achiqué               1
## # … with 822 more rows
```
…
## Generación de tópicos 4 tópicos



```r
library(topicmodels)
set.seed(22)
chistes_2=LDA(DTM, k=2, method = "Gibbs", control = NULL, model = NULL)

chistes_documentos <- tidy(chistes_2, matrix = "gamma")
chistes_documentos%>% arrange(document) 
```

```
## # A tibble: 11,960 × 3
##    document                       topic gamma
##    <chr>                          <int> <dbl>
##  1 --DAA---NI YO SE                   1 0.508
##  2 --DAA---NI YO SE                   2 0.492
##  3 -¿A TI QUÉ ES LO QUE MÁS TE MO     1 0.419
##  4 -¿A TI QUÉ ES LO QUE MÁS TE MO     2 0.581
##  5 -NO ME CORRIJAS                    1 0.540
##  6 -NO ME CORRIJAS                    2 0.460
##  7 !!QUE LOCO!!                       1 0.45 
##  8 !!QUE LOCO!!                       2 0.55 
##  9 !REPITINEDO TODO!!!!!!             1 0.608
## 10 !REPITINEDO TODO!!!!!!             2 0.392
## # … with 11,950 more rows
```
…
tabla_topicos = tabla_topicos %>% mutate(Clase=Topico)
tabla_topicos
```

```
## # A tibble: 5,980 × 4
##    document                 Topico_1 Topico_2 Clase
##    <chr>                       <dbl>    <dbl> <dbl>
##  1 Dime con quién andas...     0.561    0.439     1
##  2 Luz automática              0.429    0.571     2
##  3 Política argentina          0.463    0.537     2
##  4 0 positivo                  0.518    0.482     1
##  5 Mejor portero               0.491    0.509     2
##  6 Donación para la piscina    0.492    0.508     2
##  7 Clase de astrología         0.5      0.5       0
##  8 Bob Esponja                 0.526    0.474     1
##  9 Ojalá lloviera              0.491    0.509     2
## 10 En Canarias                 0.483    0.517     2
## # … with 5,970 more rows
```
…
